…
> 
> my_recipe <- recipe(ACTION ~. , data=data) %>%
+   
+   step_mutate_at(all_numeric_predictors(), fn = factor) %>% 
+   step_other(all_predictors(), threshold = .001) |> 
+   step_dummy(all_nominal_predictors()) 
>   # step_lencode_glm(vars_I_want_to_target_encode, outcome = vars(target_var)) |> 
>   
>   
>   
> 
> 
> prepped_recipe <- prep(my_recipe) # Sets up the preprocessing using myDataSet
> bake(prepped_recipe, new_data=testdata)
# A tibble: 58,921 × 1,049
   RESOURCE_X917 RESOURCE_X971 RESOURCE_X972 RESOURCE_X1020 RESOURCE_X1937
           <dbl>         <dbl>         <dbl>          <dbl>          <dbl>
 1             0             0             0              0              0
 2             0             0             0              0              0
 3             0             0             0              0              0
 4             0             0             0              0              0
 5             0             0             0              0              0
 6             0             0             0              0              0
 7             0             0             0              0              0
 8             0             0             0              0              0
 9             0             0             0              0              0
10             0             0             0              0              0
# ℹ 58,911 more rows
# ℹ 1,044 more variables: RESOURCE_X1969 <dbl>, RESOURCE_X3130 <dbl>,
#   RESOURCE_X3264 <dbl>, RESOURCE_X3853 <dbl>, RESOURCE_X4675 <dbl>,
#   RESOURCE_X5112 <dbl>, RESOURCE_X5173 <dbl>, RESOURCE_X6977 <dbl>,
#   RESOURCE_X7543 <dbl>, RESOURCE_X7678 <dbl>, RESOURCE_X13878 <dbl>,
#   RESOURCE_X14354 <dbl>, RESOURCE_X14570 <dbl>, RESOURCE_X15022 <dbl>,
#   RESOURCE_X15064 <dbl>, RESOURCE_X15369 <dbl>, RESOURCE_X15714 <dbl>, …
…
